stchlk_exome_annotation.Rmd
…
33. compare final variants to Lawrence et. al saturation analysis genes

## Parsed with column specification:
## cols(
##   .default = col_double(),
##   gene = col_character()
## )

## See spec(...) for full column specifications.

## # A tibble: 24 x 26
##    sample author gene  Consequence    VAF VAF.m2 VAF.strelka HGVSp chr  
##    <chr>  <chr>  <chr> <chr>        <dbl>  <dbl>       <dbl> <chr> <chr>
##  1 T23    kooi  BCOR  <NA>         0.188 NA          NA     <NA>  chrX 
##  2 T57    kooi  BCOR  <NA>         0.375 NA          NA     <NA>  chrX 
##  3 T61    kooi  BCOR  <NA>         0.5   NA          NA     <NA>  chrX 
##  4 T63    kooi  BCOR  <NA>         0.465 NA          NA     <NA>  chrX 
##  5 T66    kooi  BCOR  <NA>         0.917 NA          NA     <NA>  chrX 
##  6 rb_e_ grbn BCOR  <NA>        NA     NA          NA     <NA>  chrX 
##  7 T47    kooi  CREB <NA>         0.273 NA          NA     <NA>  chr16
##  8 T62    kooi  CREB <NA>         0.173 NA          NA     <NA>  chr16
##  9 33-CL  stach BCOR  stop_gained NA      0.21        0.206 ENSP chrX 
## 10 28-T   stach BCOR  frameshift NA      0.423       0.413 ENSP chrX 
## #  with 14 more rows, and 17 more variables: start <dbl>, end <dbl>,
## #   hg18_pos <dbl>, ref <chr>, alt <chr>, AD.NORMAL.1.m2 <dbl>,
## #   AD.NORMAL.2.m2 <dbl>, AD.TUMOR.1.m2 <dbl>, AD.TUMOR.2.m2 <dbl>,
## #   AD.NORMAL.1.strelka <dbl>, AD.NORMAL.2.strelka <dbl>,
## #   AD.TUMOR.1.strelka <dbl>, AD.TUMOR.2.strelka <dbl>, sample_type <chr>,
## #   series <chr>, tumor_type <chr>, qval <dbl>
…
